<mxfile host="65bd71144e">
    <diagram id="dx7gz7UG5YSzM7bnctuL" name="Page-1">
        <mxGraphModel dx="865" dy="706" grid="1" gridSize="10" guides="1" tooltips="1" connect="1" arrows="1" fold="1" page="1" pageScale="1" pageWidth="827" pageHeight="1169" math="0" shadow="0">
            <root>
                <mxCell id="0"/>
                <mxCell id="1" parent="0"/>
                <mxCell id="3" value="&lt;br&gt;&lt;br&gt;Всем привет, мы TzeWho&lt;br&gt;и мы представляем наш проект&lt;br&gt;&lt;br&gt;&lt;br&gt;The Whottery&lt;br&gt;&lt;br&gt;Собственно тут видос с интерфейсом(в скобках действия, а перед ними то, что должно быть голосом на фоне)&lt;br&gt;&lt;br&gt;&lt;br&gt;Давайте посмотрим на первый прототип нашего приложения(ATTENTION! This is not actual app interface! ;) )&lt;br&gt;&lt;br&gt;- перед вами гланый интерфейс приложения, где пользователь может подключить кошелек(кликаем и подключаем, вырезать или ускорить все ожидалки)&lt;br&gt;&lt;br&gt;- войти в общий пул(вбиваем кол-во тезосов, показываем авто филл второго поля, жмем кнопку, ускоряем лоадеры, показываем операции(окошко temple с подтверждением), чтоб было видно что там идут операции, а не просто кнопки), показываем как вылезает всплывашка success&lt;br&gt;- выйти из общего пула, для примера возьмем наш тестовый FA2 токен(выбираем в селекте BBB токен, вбиваем кол-во shares для вывода и показываем так же лоудеры, всплывашки, кошельки и тп)&lt;br&gt;&lt;br&gt;&lt;br&gt;- пользователь может посмотреть свою статистику, если он что-то выйграл, то вывести награду. также на данной странице представлена краткая сводка о запущенных пулах(возим указателем там, где это). Здесь же он может увидеть количество его WhotteryChanceToken, специальная монета лояльности, выдается за milestones по времени стейкинга(например 100 циклов стейкинга без перерыва) и играет роль при распределении наград&lt;br&gt;(тут момент: скорее всего, у нас не будет готовых победителей(хотя я могу подтасовать там при заливе контракта), так что тут как-то шутим на тему удачи и лоховства =). чтобы были тру победители мне надо в тестнете насвопать на тестовых дексах наших тестовых токенов, чем мне лень, если честно, заниматься в рамках хакатона )&lt;br&gt;&lt;br&gt;-здесь же говорим, что мы уже обновляем интерфейс до новой усовершенствованной версии, о которой речь идет далее&lt;br&gt;" style="text;html=1;strokeColor=none;fillColor=none;align=center;verticalAlign=middle;whiteSpace=wrap;rounded=0;" parent="1" vertex="1">
                    <mxGeometry x="140" y="90" width="680" height="430" as="geometry"/>
                </mxCell>
                <mxCell id="4QExm75HRaIfpAXkwtvL-3" value="10-15 секунд" style="text;html=1;strokeColor=none;fillColor=none;align=center;verticalAlign=middle;whiteSpace=wrap;rounded=0;" parent="1" vertex="1">
                    <mxGeometry x="70" y="40" width="60" height="30" as="geometry"/>
                </mxCell>
            </root>
        </mxGraphModel>
    </diagram>
    <diagram id="UOffgLnCvOlzOcMt08OC" name="about us and why challenge">
        <mxGraphModel dx="868" dy="706" grid="1" gridSize="10" guides="1" tooltips="1" connect="1" arrows="1" fold="1" page="1" pageScale="1" pageWidth="827" pageHeight="1169" math="0" shadow="0">
            <root>
                <mxCell id="X1yMCg6dph2bunVdaDXf-0"/>
                <mxCell id="X1yMCg6dph2bunVdaDXf-1" parent="X1yMCg6dph2bunVdaDXf-0"/>
                <mxCell id="X1yMCg6dph2bunVdaDXf-2" value="Тут должен быть слайд с историей нас и тут же вся история про cryptolototo и CR7, на этом слайде должно быть максимум выжимки о нас, тк дальше на это не будет времени. Также на этом слайде ненавязчиво приводятся доводы в сторону причин выбора челенджа&lt;br&gt;&lt;br&gt;&lt;br&gt;&lt;br&gt;Изначально нас было двое: код и арт, давно искали точки соприкосновения.&lt;br&gt;&lt;br&gt;&lt;br&gt;- В 2015 начали погружение/исследования в крипто мире&lt;br&gt;&lt;br&gt;- В 2017 тоже делали криптолотерею завязанную на майнинг монеро в браузере, криштиану ванлав, говорим, что наш бэкенд имеет особую тягу к подобного рода лудилкам и это одна из причин, почему мы взяли челендж. Проект не успел запуститься, тк создатели библиотеки для майнинга в браузере закрыли проект(это важно указать, чтоб не думал никто что мы бросаем проекты)&lt;br&gt;&lt;br&gt;- В 2021 вновь нашли общие интересы на почве криптовалют и создали проект TheWho - NFT-DAO платформа, где мы сможем воплощать свои творческие задумки. (тем самым мы как бы ненавязчиво и незаметно рассказываем про себя)Также мы планируем скорый анонс нескольких инновационных проектов в сфере NFT, аналогов которых сами еще не встречали. Да, так и заявим, громко, но без преукрас и не доебешься. (рисовалка наша и еще я придумал специальные vault's для нфт, думаю как завернуть в красивую обертку)&lt;br&gt;Мы оба хотим придать большую ценность нашим NFT-коллекциям, и это очередная причина почему мы взяли челендж. У нас будет плотная интеграция, о которой мы расскажем далее.&lt;br&gt;&lt;br&gt;- В 2022 - первое наше событие: хакатон. Под это дело мы анонсируем Женю как фронтендера" style="text;html=1;strokeColor=none;fillColor=none;align=center;verticalAlign=middle;whiteSpace=wrap;rounded=0;" vertex="1" parent="X1yMCg6dph2bunVdaDXf-1">
                    <mxGeometry x="154" y="40" width="520" height="440" as="geometry"/>
                </mxCell>
                <mxCell id="bAiZXjMF7004EDKRuRT3-0" value="1 минута 30 секунд" style="text;html=1;strokeColor=none;fillColor=none;align=center;verticalAlign=middle;whiteSpace=wrap;rounded=0;" vertex="1" parent="X1yMCg6dph2bunVdaDXf-1">
                    <mxGeometry x="30" y="20" width="60" height="30" as="geometry"/>
                </mxCell>
            </root>
        </mxGraphModel>
    </diagram>
    <diagram id="9RC3jsza3Y6lrRCf-E9X" name="Page-3">
        <mxGraphModel dx="865" dy="706" grid="1" gridSize="10" guides="1" tooltips="1" connect="1" arrows="1" fold="1" page="1" pageScale="1" pageWidth="827" pageHeight="1169" math="0" shadow="0">
            <root>
                <mxCell id="S9IUczjm3fbHwqkX-tXQ-0"/>
                <mxCell id="S9IUczjm3fbHwqkX-tXQ-1" parent="S9IUczjm3fbHwqkX-tXQ-0"/>
                <mxCell id="zzddkGsgTdO4bx59J37R-0" value="1 минута 30 секунд, вообще, тут можно не распинаться, тк мы дадим демку потыкать руками. мб уложимся в 1 минуту" style="text;html=1;strokeColor=none;fillColor=none;align=center;verticalAlign=middle;whiteSpace=wrap;rounded=0;" vertex="1" parent="S9IUczjm3fbHwqkX-tXQ-1">
                    <mxGeometry y="40" width="160" height="30" as="geometry"/>
                </mxCell>
            </root>
        </mxGraphModel>
    </diagram>
    <diagram id="nUePXrcvXlOyQCKQSHCe" name="Page-4">
        <mxGraphModel dx="868" dy="1875" grid="1" gridSize="10" guides="1" tooltips="1" connect="1" arrows="1" fold="1" page="1" pageScale="1" pageWidth="827" pageHeight="1169" math="0" shadow="0">
            <root>
                <mxCell id="7Y84FCjmgAwMr4vbCX6x-0"/>
                <mxCell id="7Y84FCjmgAwMr4vbCX6x-1" parent="7Y84FCjmgAwMr4vbCX6x-0"/>
                <mxCell id="_WKzEEYBvq4VSg8g_k77-0" value="один блок на два пункта, чтобы сильно не размазывать.&lt;br&gt;&lt;br&gt;Решаемые проблемы и Roadmap:&lt;br&gt;создавая данный проект, в первую очередь мы старались решить проблемы токеномики нашего проекта, именно поэтому мы планируем тесно интегрировать TheWho Collections, TheWho DAO, TheHow и другие наши проекты с TheWhottery. Юзеры TheWhottery получают benefits в других проектах, проекты получают часть наград пулов.&lt;br&gt;&lt;br&gt;Также мы привлекаем ликвидность в Crunch Vault's, добавляя элемент игры.&lt;br&gt;&lt;span style=&quot;color: rgb(209 , 210 , 211) ; font-size: 15px ; text-align: left ; background-color: rgb(34 , 37 , 41)&quot;&gt;мы планируем добавить возможность провайдить только XTZ в тез-токен&amp;nbsp;пулы(авто своп сделает контракт за юзера)&lt;br&gt;&lt;/span&gt;&lt;br&gt;интеграция с проектами вроде Juster.fi&lt;br&gt;&lt;br&gt;А теперь представьте ситуацию,&amp;nbsp;&lt;span style=&quot;color: rgb(209 , 210 , 211) ; font-family: , &amp;#34;applelogo&amp;#34; , sans-serif ; font-size: 15px ; text-align: left ; background-color: rgb(34 , 37 , 41)&quot;&gt;&lt;span class=&quot;Apple-converted-space&quot;&gt;&amp;nbsp;&lt;/span&gt;что есть Алиса, у которой есть ТОЛЬКО X токенов AAA. Также есть Боб, у которого есть ТОЛЬКО Y XTZ. X и Y малы, чтобы получить с них весомую доходность в одиночку. Плюс ко всему Алиса и Боб не хотят swap'ать свои монеты по какой-либо причине.&lt;/span&gt;&lt;br style=&quot;box-sizing: inherit ; color: rgb(209 , 210 , 211) ; font-family: , &amp;#34;applelogo&amp;#34; , sans-serif ; font-size: 15px ; text-align: left&quot;&gt;&lt;span style=&quot;color: rgb(209 , 210 , 211) ; font-family: , &amp;#34;applelogo&amp;#34; , sans-serif ; font-size: 15px ; text-align: left ; background-color: rgb(34 , 37 , 41)&quot;&gt;Проблема: в итоге деньги(пусть и небольшие) просто лежат.&lt;/span&gt;&lt;br style=&quot;box-sizing: inherit ; color: rgb(209 , 210 , 211) ; font-family: , &amp;#34;applelogo&amp;#34; , sans-serif ; font-size: 15px ; text-align: left&quot;&gt;&lt;span style=&quot;color: rgb(209 , 210 , 211) ; font-family: , &amp;#34;applelogo&amp;#34; , sans-serif ; font-size: 15px ; text-align: left ; background-color: rgb(34 , 37 , 41)&quot;&gt;Решение: &lt;br&gt;&lt;br&gt;БАРАБАННАЯ БЛЯТЬ ДРОБЬ!!!!!&lt;br&gt;&lt;br&gt;&lt;br&gt;TheWhoouter(читается как зе хуутер, надеюсь Украина не обидится=) это называние как дань уважения к тезУкр, а не как стеб )&lt;br&gt;&lt;br&gt;контракт, в который Алиса и Боб могут закинуть любые средства, и он сам примет участие в нужной/подходящей лотерее их средствами и каким-то образом распределит награды в случае победы.&lt;/span&gt;&lt;br style=&quot;box-sizing: inherit ; color: rgb(209 , 210 , 211) ; font-family: , &amp;#34;applelogo&amp;#34; , sans-serif ; font-size: 15px ; text-align: left&quot;&gt;&lt;span style=&quot;color: rgb(209 , 210 , 211) ; font-family: , &amp;#34;applelogo&amp;#34; , sans-serif ; font-size: 15px ; text-align: left ; background-color: rgb(34 , 37 , 41)&quot;&gt;Таких участников может быть много, все с разными монетами. Эдакий он-чейн роутер ликвидности с элементом лотереи. =)&lt;br&gt;&lt;br&gt;&lt;/span&gt;" style="text;html=1;strokeColor=none;fillColor=none;align=center;verticalAlign=middle;whiteSpace=wrap;rounded=0;" vertex="1" parent="7Y84FCjmgAwMr4vbCX6x-1">
                    <mxGeometry x="124" y="30" width="580" height="470" as="geometry"/>
                </mxCell>
                <mxCell id="heJKkvz7YAFp5jZ8aybW-0" value="1 минута 30 секунд" style="text;html=1;strokeColor=none;fillColor=none;align=center;verticalAlign=middle;whiteSpace=wrap;rounded=0;" vertex="1" parent="7Y84FCjmgAwMr4vbCX6x-1">
                    <mxGeometry x="30" y="20" width="60" height="30" as="geometry"/>
                </mxCell>
            </root>
        </mxGraphModel>
    </diagram>
    <diagram id="dviEaGBawr44g5zU9rxk" name="Page-5">
        <mxGraphModel dx="865" dy="706" grid="1" gridSize="10" guides="1" tooltips="1" connect="1" arrows="1" fold="1" page="1" pageScale="1" pageWidth="827" pageHeight="1169" math="0" shadow="0">
            <root>
                <mxCell id="MQCgW9EqTTUcrHcGOVKQ-0"/>
                <mxCell id="MQCgW9EqTTUcrHcGOVKQ-1" parent="MQCgW9EqTTUcrHcGOVKQ-0"/>
                <mxCell id="MQCgW9EqTTUcrHcGOVKQ-9" value="" style="rounded=0;whiteSpace=wrap;html=1;" vertex="1" parent="MQCgW9EqTTUcrHcGOVKQ-1">
                    <mxGeometry x="40" width="760" height="890" as="geometry"/>
                </mxCell>
                <mxCell id="MQCgW9EqTTUcrHcGOVKQ-2" value="Placeholder: Enter new random number source" style="rounded=0;whiteSpace=wrap;html=1;" vertex="1" parent="MQCgW9EqTTUcrHcGOVKQ-1">
                    <mxGeometry x="154" y="260" width="320" height="40" as="geometry"/>
                </mxCell>
                <mxCell id="MQCgW9EqTTUcrHcGOVKQ-3" value="update random source" style="rounded=1;whiteSpace=wrap;html=1;" vertex="1" parent="MQCgW9EqTTUcrHcGOVKQ-1">
                    <mxGeometry x="554" y="260" width="120" height="40" as="geometry"/>
                </mxCell>
                <mxCell id="MQCgW9EqTTUcrHcGOVKQ-4" value="Placeholder: Enter new round timeframe" style="rounded=0;whiteSpace=wrap;html=1;" vertex="1" parent="MQCgW9EqTTUcrHcGOVKQ-1">
                    <mxGeometry x="154" y="340" width="320" height="40" as="geometry"/>
                </mxCell>
                <mxCell id="MQCgW9EqTTUcrHcGOVKQ-5" value="update round timeframe" style="rounded=1;whiteSpace=wrap;html=1;" vertex="1" parent="MQCgW9EqTTUcrHcGOVKQ-1">
                    <mxGeometry x="554" y="340" width="120" height="40" as="geometry"/>
                </mxCell>
                <mxCell id="MQCgW9EqTTUcrHcGOVKQ-6" value="Select pool &amp;gt;" style="rounded=0;whiteSpace=wrap;html=1;" vertex="1" parent="MQCgW9EqTTUcrHcGOVKQ-1">
                    <mxGeometry x="154" y="160" width="120" height="40" as="geometry"/>
                </mxCell>
                <mxCell id="MQCgW9EqTTUcrHcGOVKQ-8" style="edgeStyle=none;html=1;exitX=0;exitY=0.5;exitDx=0;exitDy=0;entryX=1;entryY=0.5;entryDx=0;entryDy=0;" edge="1" parent="MQCgW9EqTTUcrHcGOVKQ-1" source="MQCgW9EqTTUcrHcGOVKQ-7" target="MQCgW9EqTTUcrHcGOVKQ-6">
                    <mxGeometry relative="1" as="geometry"/>
                </mxCell>
                <mxCell id="MQCgW9EqTTUcrHcGOVKQ-7" value="Селектор токенов(они же пулы, то же самое что на главной при выборе монеты)" style="text;html=1;strokeColor=none;fillColor=none;align=center;verticalAlign=middle;whiteSpace=wrap;rounded=0;" vertex="1" parent="MQCgW9EqTTUcrHcGOVKQ-1">
                    <mxGeometry x="490" y="80" width="200" height="30" as="geometry"/>
                </mxCell>
            </root>
        </mxGraphModel>
    </diagram>
</mxfile>